{
  "name": "module",
  "title": "New Module",
  "description": "",
  "version": "1.0.3",
  "library": "false",
  "manifestPlusVersion": "1.0.0",
  "minimumCoreVersion": "0.8.8",
  "compatibleCoreVersion": "0.8.8",
  "authors": [
    {
      "name": "The League of Extraordinary FVTT Developers",
      "url": "https://github.com/League-of-Foundry-Developers",
      "discord": "discordID#0001"
    }
  ],
  "dependencies": [

  ],
  "conflicts": [
    
  ],
  "esmodules": [
    "/scripts/module.js"
  ],
  "scripts": [
    "/scripts/lib/lib.js"
  ],
  "styles": [
    "/styles/module.css"
  ],
  "languages": [
    {
      "lang": "en",
      "name": "English",
      "path": "languages/en.json"
    }
  ],
  "url": "https://gitlab.com/akrigline/testing-gl-ci",
  "manifest": "https://gitlab.com/akrigline/testing-gl-ci/-/raw/latest/module.json",
  "download": "https://gitlab.com/akrigline/testing-gl-ci/-/releases/release-1.0.3/downloads/tester-release-1.0.3.zip",
  "media": [
    {
      "type": "icon",
      "url": "https://avatars2.githubusercontent.com/u/71292812?s=400&u=ccdb4eeb7abf551ca8f314e5a9bfd0479a4d3d41&v=4"
    }
  ]
}
